Assessment of Predictive Models
…
#backward selection
backward_model <- 
  stepAIC(full_model,
          direction = "backward",
          trace = F);

Selection

tidy(full_model) %>% 
  left_join(tibble(term = glue("x{1:floor(p/2)}"), 
                   nonzero = 1)) %>%
  mutate(nonzero = replace_na(nonzero, 0)) %>%
  arrange(p.value);

## # A tibble: 41 x 6
##    term   estimate std.error statistic p.value nonzero
##    <glue>    <dbl>     <dbl>     <dbl>   <dbl>   <dbl>
##  1 x17        2.21     0.829      2.66 0.00771       1
##  2 x15        2.54     0.963      2.64 0.00838       1
##  3 x30       -1.98     0.830     -2.39 0.0170        0
##  4 x4         1.67     0.714      2.34 0.0195        1
##  5 x35        1.89     0.817      2.32 0.0205        0
##  6 x2         1.20     0.599      2.00 0.0453        1
##  7 x20        1.81     0.910      1.99 0.0469        1
##  8 x7         1.31     0.739      1.77 0.0766        1
##  9 x11        1.01     0.587      1.72 0.0852        1
## 10 x33        1.26     0.754      1.67 0.0944        0
## #  with 31 more rows
…
Expected prevalence of about 0.6

\(\hat Y(x)=\hat{\Pr}(Y=1|X=x) = 1/(1+\exp(-\hat\alpha - x\hat\beta))\)

2500 simulated datasets

In each simulated dataset, only three models are taken to the testing step: the true and null models (for benchmarking) and whichever other model has best validation MSPE

source("simulator.R");
all_results <- run_sim(seed = 7201969);

print(all_results, n = 18)

## # A tibble: 45,000 x 6
##      sim model_name     step        mspe row_number ranking
##    <int> <fct>          <fct>      <dbl>      <int>   <int>
##  1     1 (truth)        training   0.248          1       6
##  2     1 (truth)        validation 0.244          2       6
##  3     1 (truth)        testing    0.212          3       6
##  4     1 null           training   0.249          4      11
##  5     1 null           validation 0.246          5      11
##  6     1 null           testing    0.247          6      11
##  7     1 full           training   0.204          7       4
##  8     1 full           validation 0.337          8       4
##  9     1 full           testing    0.271          9       4
## 10     1 forward        training   0.230         10       2
## 11     1 forward        validation 0.258         11       2
## 12     1 forward        testing    0.236         12       2
## 13     1 forward_pruned training   0.230         13       1
## 14     1 forward_pruned validation 0.258         14       1
## 15     1 forward_pruned testing    0.236         15       1
## 16     1 backward       training   0.222         16       3
## 17     1 backward       validation 0.303         17       3
## 18     1 backward       testing    0.245         18       3
## #  with 44,982 more rows
…
